■■■■■■■■■■■■■■■■■■■■■■■■■■■■■■■■■■■■■■■
■■ 프로그램			: AppForFiles 프로그램
■■ 최초 작성 날짜	: 2017년 03월 07일
■■ 최종 작성 날짜	: 2017년 03월 07일
■■---------------------------------------------------------------------------
■■ Version 표기법 : 1st . 2nd . 3rd . 4th
■■ 1st : 프로그램 변경이 많은 경우
■■ 2nd : 기능 추가, 클래스 추가 등
■■ 3rd : 코드 수정(오류, 기능변경), 리소스 추가
■■ 4th : 설정 변경, 리소스 변경, 단순 오류 처리
■■---------------------------------------------------------------------------
■■■■■■■■■■■■■■■■■■■■■■■■■■■■■■■■■■■■■■■
===============================================================================
Version : 1.0.0.0
Date	: 2011/00/00
-------------------------------------------------------------------------------
->
-------------------------------------------------------------------------------
===============================================================================
Version : 1.0.0.0
Date	: 2017/03/07
-------------------------------------------------------------------------------
->
-------------------------------------------------------------------------------